id,label
4C Black Hair_460.png,4chair
4C Black Hair_474.png,4chair
4C Black Hair_354.jpeg,4chair
4C Black Hair_211.jpeg,4chair
4C Black Hair_138.jpeg,4chair
4C Black Hair_37.jpeg,4chair
4C Black Hair_303.jpeg,4chair
4C Black Hair_246.jpeg,4chair
4C Black Hair_495.jpeg,4chair
4C Black Hair_180.jpeg,4chair
4C Black Hair_60.jpeg,4chair
4C Black Hair_250.jpeg,4chair
4C Black Hair_99.jpeg,4chair
4C Black Hair_483.jpeg,4chair
4C Black Hair_179.jpeg,4chair
4C Black Hair_76.jpeg,4chair
4C Black Hair_196.jpeg,4chair
4C Black Hair_272.png,4chair
4C Black Hair_21.jpeg,4chair
4C Black Hair_293.jpeg,4chair
4C Black Hair_339.jpeg,4chair
4C Black Hair_440.jpeg,4chair
4C Black Hair_155.jpeg,4chair
4C Black Hair_417.jpeg,4chair
4C Black Hair_102.jpeg,4chair
4C Black Hair_397.jpeg,4chair
4C Black Hair_378.jpeg,4chair
4C Black Hair_401.jpeg,4chair
4C Black Hair_114.jpeg,4chair
4C Black Hair_456.jpeg,4chair
4C Black Hair_475.png,4chair
4C Black Hair_143.jpeg,4chair
4C Black Hair_134.jpeg,4chair
4C Black Hair_358.jpeg,4chair
4C Black Hair_499.jpeg,4chair
4C Black Hair_83.jpeg,4chair
4C Black Hair_163.jpeg,4chair
4C Black Hair_476.jpeg,4chair
4C Black Hair_8.jpeg,4chair
4C Black Hair_175.jpeg,4chair
4C Black Hair_95.jpeg,4chair
4C Black Hair_319.jpeg,4chair
4C Black Hair_122.jpeg,4chair
4C Black Hair_437.jpeg,4chair
4C Black Hair_56.jpeg,4chair
4C Black Hair_159.jpeg,4chair
4C Black Hair_270.jpeg,4chair
4C Black Hair_335.jpeg,4chair
4C Black Hair_227.jpeg,4chair
4C Black Hair_362.jpeg,4chair
4C Black Hair_17.jpeg,4chair
4C Black Hair_118.jpeg,4chair
4C Black Hair_231.jpeg,4chair
4C Black Hair_106.png,4chair
4C Black Hair_374.jpeg,4chair
4C Black Hair_40.jpeg,4chair
4C Black Hair_266.jpeg,4chair
4C Black Hair_289.jpeg,4chair
4C Black Hair_323.jpeg,4chair
4C Black Hair_267.jpeg,4chair
4C Black Hair_314.png,4chair
4C Black Hair_322.jpeg,4chair
4C Black Hair_41.jpeg,4chair
4C Black Hair_230.jpeg,4chair
4C Black Hair_116.png,4chair
4C Black Hair_375.jpeg,4chair
4C Black Hair_16.jpeg,4chair
4C Black Hair_119.jpeg,4chair
4C Black Hair_226.jpeg,4chair
4C Black Hair_363.jpeg,4chair
4C Black Hair_271.jpeg,4chair
4C Black Hair_334.jpeg,4chair
4C Black Hair_318.jpeg,4chair
4C Black Hair_174.jpeg,4chair
4C Black Hair_94.jpeg,4chair
4C Black Hair_461.jpeg,4chair
4C Black Hair_498.jpeg,4chair
4C Black Hair_82.jpeg,4chair
4C Black Hair_162.jpeg,4chair
4C Black Hair_477.jpeg,4chair
4C Black Hair_9.jpeg,4chair
4C Black Hair_301.png,4chair
4C Black Hair_135.jpeg,4chair
4C Black Hair_473.png,4chair
4C Black Hair_315.png,4chair
4C Black Hair_420.jpeg,4chair
4C Black Hair_457.jpeg,4chair
4C Black Hair_142.jpeg,4chair
4C Black Hair_284.jpeg,4chair
4C Black Hair_400.jpeg,4chair
4C Black Hair_129.png,4chair
4C Black Hair_115.jpeg,4chair
4C Black Hair_379.jpeg,4chair
4C Black Hair_416.jpeg,4chair
4C Black Hair_103.jpeg,4chair
4C Black Hair_380.jpeg,4chair
4C Black Hair_441.jpeg,4chair
4C Black Hair_277.png,4chair
4C Black Hair_154.jpeg,4chair
4C Black Hair_288.png,4chair
4C Black Hair_338.jpeg,4chair
4C Black Hair_20.jpeg,4chair
4C Black Hair_262.png,4chair
4C Black Hair_343.jpeg,4chair
4C Black Hair_276.png,4chair
4C Black Hair_98.jpeg,4chair
4C Black Hair_482.jpeg,4chair
4C Black Hair_178.jpeg,4chair
4C Black Hair_77.jpeg,4chair
4C Black Hair_251.jpeg,4chair
4C Black Hair_494.jpeg,4chair
4C Black Hair_5.jpeg,4chair
4C Black Hair_181.jpeg,4chair
4C Black Hair_61.jpeg,4chair
4C Black Hair_302.jpeg,4chair
4C Black Hair_247.jpeg,4chair
4C Black Hair_139.jpeg,4chair
4C Black Hair_36.jpeg,4chair
4C Black Hair_316.png,4chair
4C Black Hair_355.jpeg,4chair
4C Black Hair_210.jpeg,4chair
4C Black Hair_365.png,4chair
4C Black Hair_359.png,4chair
4C Black Hair_427.jpeg,4chair
4C Black Hair_165.jpeg,4chair
4C Black Hair_85.jpeg,4chair
4C Black Hair_470.jpeg,4chair
4C Black Hair_309.jpeg,4chair
4C Black Hair_198.png,4chair
4C Black Hair_93.jpeg,4chair
4C Black Hair_489.jpeg,4chair
4C Black Hair_173.jpeg,4chair
4C Black Hair_466.jpeg,4chair
4C Black Hair_348.jpeg,4chair
4C Black Hair_333.jpeg,4chair
4C Black Hair_299.jpeg,4chair
4C Black Hair_108.jpeg,4chair
4C Black Hair_221.jpeg,4chair
4C Black Hair_364.jpeg,4chair
4C Black Hair_11.jpeg,4chair
4C Black Hair_46.jpeg,4chair
4C Black Hair_149.jpeg,4chair
4C Black Hair_260.jpeg,4chair
4C Black Hair_325.jpeg,4chair
4C Black Hair_372.png,4chair
4C Black Hair_366.png,4chair
4C Black Hair_217.jpeg,4chair
4C Black Hair_31.jpeg,4chair
4C Black Hair_305.jpeg,4chair
4C Black Hair_42.png,4chair
4C Black Hair_240.jpeg,4chair
4C Black Hair_158.png,4chair
4C Black Hair_493.jpeg,4chair
4C Black Hair_89.jpeg,4chair
4C Black Hair_169.jpeg,4chair
4C Black Hair_2.jpeg,4chair
4C Black Hair_66.jpeg,4chair
4C Black Hair_186.jpeg,4chair
4C Black Hair_313.jpeg,4chair
4C Black Hair_256.jpeg,4chair
4C Black Hair_485.jpeg,4chair
4C Black Hair_190.jpeg,4chair
4C Black Hair_70.jpeg,4chair
4C Black Hair_206.png,4chair
4C Black Hair_344.jpeg,4chair
4C Black Hair_128.jpeg,4chair
4C Black Hair_27.jpeg,4chair
4C Black Hair_295.jpeg,4chair
4C Black Hair_446.jpeg,4chair
4C Black Hair_213.png,4chair
4C Black Hair_153.jpeg,4chair
4C Black Hair_207.png,4chair
4C Black Hair_387.jpeg,4chair
4C Black Hair_411.jpeg,4chair
4C Black Hair_104.jpeg,4chair
4C Black Hair_391.jpeg,4chair
4C Black Hair_80.png,4chair
4C Black Hair_407.jpeg,4chair
4C Black Hair_112.jpeg,4chair
4C Black Hair_43.png,4chair
4C Black Hair_57.png,4chair
4C Black Hair_329.jpeg,4chair
4C Black Hair_283.jpeg,4chair
4C Black Hair_450.jpeg,4chair
4C Black Hair_439.png,4chair
4C Black Hair_144.jpeg,4chair
4C Black Hair_328.jpeg,4chair
4C Black Hair_282.jpeg,4chair
4C Black Hair_406.jpeg,4chair
4C Black Hair_113.jpeg,4chair
4C Black Hair_53.png,4chair
4C Black Hair_390.jpeg,4chair
4C Black Hair_410.jpeg,4chair
4C Black Hair_105.jpeg,4chair
4C Black Hair_386.jpeg,4chair
4C Black Hair_369.jpeg,4chair
4C Black Hair_152.jpeg,4chair
4C Black Hair_294.jpeg,4chair
4C Black Hair_26.jpeg,4chair
4C Black Hair_345.jpeg,4chair
4C Black Hair_484.jpeg,4chair
4C Black Hair_191.jpeg,4chair
4C Black Hair_71.jpeg,4chair
4C Black Hair_312.jpeg,4chair
4C Black Hair_257.jpeg,4chair
4C Black Hair_492.jpeg,4chair
4C Black Hair_88.jpeg,4chair
4C Black Hair_168.jpeg,4chair
4C Black Hair_67.jpeg,4chair
4C Black Hair_187.jpeg,4chair
4C Black Hair_304.jpeg,4chair
4C Black Hair_241.jpeg,4chair
4C Black Hair_30.jpeg,4chair
4C Black Hair_353.jpeg,4chair
4C Black Hair_438.png,4chair
4C Black Hair_216.jpeg,4chair
4C Black Hair_261.jpeg,4chair
4C Black Hair_360.png,4chair
4C Black Hair_324.jpeg,4chair
4C Black Hair_47.jpeg,4chair
4C Black Hair_148.jpeg,4chair
4C Black Hair_78.png,4chair
4C Black Hair_373.jpeg,4chair
4C Black Hair_50.png,4chair
4C Black Hair_10.jpeg,4chair
4C Black Hair_220.jpeg,4chair
4C Black Hair_109.jpeg,4chair
4C Black Hair_332.jpeg,4chair
4C Black Hair_298.jpeg,4chair
4C Black Hair_200.png,4chair
4C Black Hair_349.jpeg,4chair
4C Black Hair_201.png,4chair
4C Black Hair_125.jpeg,4chair
4C Black Hair_430.jpeg,4chair
4C Black Hair_92.jpeg,4chair
4C Black Hair_488.jpeg,4chair
4C Black Hair_172.jpeg,4chair
4C Black Hair_467.jpeg,4chair
4C Black Hair_308.jpeg,4chair
4C Black Hair_51.png,4chair
4C Black Hair_45.png,4chair
4C Black Hair_164.jpeg,4chair
4C Black Hair_84.jpeg,4chair
4C Black Hair_471.jpeg,4chair
4C Black Hair_79.png,4chair
4C Black Hair_133.jpeg,4chair
4C Black Hair_426.jpeg,4chair
4C Black Hair_327.jpeg,4chair
4C Black Hair_436.png,4chair
4C Black Hair_44.jpeg,4chair
4C Black Hair_370.jpeg,4chair
4C Black Hair_13.jpeg,4chair
4C Black Hair_409.jpeg,4chair
4C Black Hair_389.jpeg,4chair
4C Black Hair_223.jpeg,4chair
4C Black Hair_331.jpeg,4chair
4C Black Hair_274.jpeg,4chair
4C Black Hair_448.jpeg,4chair
4C Black Hair_52.jpeg,4chair
4C Black Hair_433.jpeg,4chair
4C Black Hair_29.jpeg,4chair
4C Black Hair_126.jpeg,4chair
4C Black Hair_258.jpeg,4chair
4C Black Hair_464.jpeg,4chair
4C Black Hair_91.jpeg,4chair
4C Black Hair_171.jpeg,4chair
4C Black Hair_4.png,4chair
4C Black Hair_188.jpeg,4chair
4C Black Hair_68.jpeg,4chair
4C Black Hair_472.jpeg,4chair
4C Black Hair_167.jpeg,4chair
4C Black Hair_87.jpeg,4chair
4C Black Hair_219.jpeg,4chair
4C Black Hair_425.jpeg,4chair
4C Black Hair_435.png,4chair
4C Black Hair_147.jpeg,4chair
4C Black Hair_421.png,4chair
4C Black Hair_48.jpeg,4chair
4C Black Hair_452.jpeg,4chair
4C Black Hair_281.jpeg,4chair
4C Black Hair_110.jpeg,4chair
4C Black Hair_145.png,4chair
4C Black Hair_405.jpeg,4chair
4C Black Hair_393.jpeg,4chair
4C Black Hair_239.jpeg,4chair
4C Black Hair_413.jpeg,4chair
4C Black Hair_385.jpeg,4chair
4C Black Hair_151.jpeg,4chair
4C Black Hair_297.jpeg,4chair
4C Black Hair_278.jpeg,4chair
4C Black Hair_25.jpeg,4chair
4C Black Hair_203.jpeg,4chair
4C Black Hair_346.jpeg,4chair
4C Black Hair_192.jpeg,4chair
4C Black Hair_468.jpeg,4chair
4C Black Hair_72.jpeg,4chair
4C Black Hair_487.jpeg,4chair
4C Black Hair_254.jpeg,4chair
4C Black Hair_311.jpeg,4chair
4C Black Hair_64.jpeg,4chair
4C Black Hair_184.jpeg,4chair
4C Black Hair_193.png,4chair
4C Black Hair_491.jpeg,4chair
4C Black Hair_242.jpeg,4chair
4C Black Hair_307.jpeg,4chair
4C Black Hair_33.jpeg,4chair
4C Black Hair_429.jpeg,4chair
4C Black Hair_215.jpeg,4chair
4C Black Hair_350.jpeg,4chair
4C Black Hair_352.png,4chair
4C Black Hair_214.jpeg,4chair
4C Black Hair_356.png,4chair
4C Black Hair_351.jpeg,4chair
4C Black Hair_342.png,4chair
4C Black Hair_32.jpeg,4chair
4C Black Hair_428.jpeg,4chair
4C Black Hair_395.png,4chair
4C Black Hair_381.png,4chair
4C Black Hair_243.jpeg,4chair
4C Black Hair_306.jpeg,4chair
4C Black Hair_1.jpeg,4chair
4C Black Hair_185.jpeg,4chair
4C Black Hair_3.png,4chair
4C Black Hair_197.png,4chair
4C Black Hair_490.jpeg,4chair
4C Black Hair_183.png,4chair
4C Black Hair_255.jpeg,4chair
4C Black Hair_310.jpeg,4chair
4C Black Hair_469.jpeg,4chair
4C Black Hair_73.jpeg,4chair
4C Black Hair_486.jpeg,4chair
4C Black Hair_202.jpeg,4chair
4C Black Hair_222.png,4chair
4C Black Hair_347.jpeg,4chair
4C Black Hair_236.png,4chair
4C Black Hair_24.jpeg,4chair
4C Black Hair_296.jpeg,4chair
4C Black Hair_237.png,4chair
4C Black Hair_150.jpeg,4chair
4C Black Hair_500.jpeg,4chair
4C Black Hair_384.jpeg,4chair
4C Black Hair_107.jpeg,4chair
4C Black Hair_412.jpeg,4chair
4C Black Hair_392.jpeg,4chair
4C Black Hair_238.jpeg,4chair
4C Black Hair_111.jpeg,4chair
4C Black Hair_404.jpeg,4chair
4C Black Hair_394.png,4chair
4C Black Hair_146.jpeg,4chair
4C Black Hair_357.png,4chair
4C Black Hair_431.png,4chair
4C Black Hair_49.jpeg,4chair
4C Black Hair_453.jpeg,4chair
4C Black Hair_424.jpeg,4chair
4C Black Hair_131.jpeg,4chair
4C Black Hair_218.jpeg,4chair
4C Black Hair_396.png,4chair
4C Black Hair_189.jpeg,4chair
4C Black Hair_69.jpeg,4chair
4C Black Hair_166.jpeg,4chair
4C Black Hair_65.png,4chair
4C Black Hair_86.jpeg,4chair
4C Black Hair_157.png,4chair
4C Black Hair_465.jpeg,4chair
4C Black Hair_90.jpeg,4chair
4C Black Hair_170.jpeg,4chair
4C Black Hair_259.jpeg,4chair
4C Black Hair_209.png,4chair
4C Black Hair_432.jpeg,4chair
4C Black Hair_235.png,4chair
4C Black Hair_127.jpeg,4chair
4C Black Hair_449.jpeg,4chair
4C Black Hair_330.jpeg,4chair
4C Black Hair_275.jpeg,4chair
4C Black Hair_367.jpeg,4chair
4C Black Hair_388.jpeg,4chair
4C Black Hair_12.jpeg,4chair
4C Black Hair_408.jpeg,4chair
4C Black Hair_371.jpeg,4chair
4C Black Hair_234.jpeg,4chair
4C Black Hair_326.jpeg,4chair
4C Black Hair_368.png,4chair
4C Black Hair_263.jpeg,4chair
4C Black Hair_141.jpeg,4chair
4C Black Hair_454.jpeg,4chair
4C Black Hair_287.jpeg,4chair
4C Black Hair_268.jpeg,4chair
4C Black Hair_19.jpeg,4chair
4C Black Hair_403.jpeg,4chair
4C Black Hair_100.jpeg,4chair
4C Black Hair_415.jpeg,4chair
4C Black Hair_229.jpeg,4chair
4C Black Hair_383.jpeg,4chair
4C Black Hair_442.jpeg,4chair
4C Black Hair_58.jpeg,4chair
4C Black Hair_291.jpeg,4chair
4C Black Hair_23.jpeg,4chair
4C Black Hair_285.png,4chair
4C Black Hair_205.jpeg,4chair
4C Black Hair_340.jpeg,4chair
4C Black Hair_74.jpeg,4chair
4C Black Hair_194.jpeg,4chair
4C Black Hair_481.jpeg,4chair
4C Black Hair_252.jpeg,4chair
4C Black Hair_317.jpeg,4chair
4C Black Hair_6.jpeg,4chair
4C Black Hair_182.jpeg,4chair
4C Black Hair_62.jpeg,4chair
4C Black Hair_478.jpeg,4chair
4C Black Hair_497.jpeg,4chair
4C Black Hair_244.jpeg,4chair
4C Black Hair_130.png,4chair
4C Black Hair_124.png,4chair
4C Black Hair_35.jpeg,4chair
4C Black Hair_321.jpeg,4chair
4C Black Hair_264.jpeg,4chair
4C Black Hair_458.jpeg,4chair
4C Black Hair_376.jpeg,4chair
4C Black Hair_132.png,4chair
4C Black Hair_28.png,4chair
4C Black Hair_233.jpeg,4chair
4C Black Hair_399.jpeg,4chair
4C Black Hair_15.jpeg,4chair
4C Black Hair_225.jpeg,4chair
4C Black Hair_419.jpeg,4chair
4C Black Hair_337.jpeg,4chair
4C Black Hair_54.jpeg,4chair
4C Black Hair_292.png,4chair
4C Black Hair_286.png,4chair
4C Black Hair_279.png,4chair
4C Black Hair_462.jpeg,4chair
4C Black Hair_177.jpeg,4chair
4C Black Hair_97.jpeg,4chair
4C Black Hair_248.jpeg,4chair
4C Black Hair_81.jpeg,4chair
4C Black Hair_161.jpeg,4chair
4C Black Hair_39.jpeg,4chair
4C Black Hair_423.jpeg,4chair
4C Black Hair_422.jpeg,4chair
4C Black Hair_137.jpeg,4chair
4C Black Hair_447.png,4chair
4C Black Hair_123.png,4chair
4C Black Hair_160.jpeg,4chair
4C Black Hair_249.jpeg,4chair
4C Black Hair_199.jpeg,4chair
4C Black Hair_463.jpeg,4chair
4C Black Hair_176.jpeg,4chair
4C Black Hair_96.jpeg,4chair
4C Black Hair_434.jpeg,4chair
4C Black Hair_208.jpeg,4chair
4C Black Hair_55.jpeg,4chair
4C Black Hair_336.jpeg,4chair
4C Black Hair_273.jpeg,4chair
4C Black Hair_418.jpeg,4chair
4C Black Hair_361.jpeg,4chair
4C Black Hair_224.jpeg,4chair
4C Black Hair_14.jpeg,4chair
4C Black Hair_377.jpeg,4chair
4C Black Hair_136.png,4chair
4C Black Hair_38.png,4chair
4C Black Hair_232.jpeg,4chair
4C Black Hair_398.jpeg,4chair
4C Black Hair_459.jpeg,4chair
4C Black Hair_320.jpeg,4chair
4C Black Hair_265.jpeg,4chair
4C Black Hair_212.jpeg,4chair
4C Black Hair_444.png,4chair
4C Black Hair_34.jpeg,4chair
4C Black Hair_245.jpeg,4chair
4C Black Hair_120.png,4chair
4C Black Hair_300.jpeg,4chair
4C Black Hair_7.jpeg,4chair
4C Black Hair_63.jpeg,4chair
4C Black Hair_479.jpeg,4chair
4C Black Hair_496.jpeg,4chair
4C Black Hair_253.jpeg,4chair
4C Black Hair_75.jpeg,4chair
4C Black Hair_195.jpeg,4chair
4C Black Hair_480.jpeg,4chair
4C Black Hair_204.jpeg,4chair
4C Black Hair_341.jpeg,4chair
4C Black Hair_22.jpeg,4chair
4C Black Hair_280.png,4chair
4C Black Hair_290.jpeg,4chair
4C Black Hair_156.jpeg,4chair
4C Black Hair_443.jpeg,4chair
4C Black Hair_59.jpeg,4chair
4C Black Hair_228.jpeg,4chair
4C Black Hair_382.jpeg,4chair
4C Black Hair_101.jpeg,4chair
4C Black Hair_414.jpeg,4chair
4C Black Hair_117.jpeg,4chair
4C Black Hair_121.png,4chair
4C Black Hair_18.jpeg,4chair
4C Black Hair_402.jpeg,4chair
4C Black Hair_269.jpeg,4chair
4C Black Hair_451.png,4chair
4C Black Hair_445.png,4chair
4C Black Hair_140.jpeg,4chair
4C Black Hair_455.jpeg,4chair
